-------------------------------------------------------------------------------
Test set: com.crudapplication.springboot.SpringbootBasicCrudAppApplicationTests
-------------------------------------------------------------------------------
Tests run: 1, Failures: 0, Errors: 0, Skipped: 0, Time elapsed: 4.834 s - in com.crudapplication.springboot.SpringbootBasicCrudAppApplicationTests
